…
```
##  [1] "name"         "genus"        "vore"         "order"        "conservation"
##  [6] "sleep_total"  "sleep_rem"    "sleep_cycle"  "awake"        "brainwt"     
## [11] "bodywt"
```

``` r
msleep
```

```
## # A tibble: 83 × 11
##    name   genus vore  order conservation sleep_total sleep_rem sleep_cycle awake
##    <chr>  <chr> <chr> <chr> <chr>              <dbl>     <dbl>       <dbl> <dbl>
##  1 Cheet… Acin… carni Carn… lc                  12.1      NA        NA      11.9
##  2 Owl m… Aotus omni  Prim… <NA>                17         1.8      NA       7  
##  3 Mount… Aplo… herbi Rode… nt                  14.4       2.4      NA       9.6
##  4 Great… Blar… omni  Sori… lc                  14.9       2.3       0.133   9.1
##  5 Cow    Bos   herbi Arti… domesticated         4         0.7       0.667  20  
##  6 Three… Brad… herbi Pilo… <NA>                14.4       2.2       0.767   9.6
##  7 North… Call… carni Carn… vu                   8.7       1.4       0.383  15.3
##  8 Vespe… Calo… <NA>  Rode… <NA>                 7        NA        NA      17  
##  9 Dog    Canis carni Carn… domesticated        10.1       2.9       0.333  13.9
## 10 Roe d… Capr… herbi Arti… lc                   3        NA        NA      21  
## # ℹ 73 more rows
## # ℹ 2 more variables: brainwt <dbl>, bodywt <dbl>
```
…
**8. We are interested in two groups; small and large mammals. Let's define small as less than or equal to 1kg body weight and large as greater than or equal to 200kg body weight. Make two new dataframes (large and small) based on these parameters.**

``` r
small <- filter(msleep, bodywt <= 1)
large <- filter(msleep, bodywt >= 200)
small_new <- select(small, name, bodywt)
small_new
```

```
## # A tibble: 36 × 2
##    name                       bodywt
##    <chr>                       <dbl>
##  1 Owl monkey                  0.48 
##  2 Greater short-tailed shrew  0.019
##  3 Vesper mouse                0.045
##  4 Guinea pig                  0.728
##  5 Chinchilla                  0.42 
##  6 Star-nosed mole             0.06 
##  7 African giant pouched rat   1    
##  8 Lesser short-tailed shrew   0.005
##  9 Big brown bat               0.023
## 10 European hedgehog           0.77 
## # ℹ 26 more rows
```
…
